Data Science for Public Policy Final Project
…
#looking at public health outcomes in relationship to distance to banks 

banking<- st_transform(banks_join, crs = 4326)
DC<- st_transform(DC_tracts, crs = 4326)

st_transform(Health_map, crs = 4326)

Simple feature collection with 4330 features and 24 fields
Geometry type: POINT
Dimension:     XY
Bounding box:  xmin: -77.5045 ymin: 38.61075 xmax: -76.70545 ymax: 39.3072
Geodetic CRS:  WGS 84
# A tibble: 4,330 × 25
    Year StateAbbr StateDesc CountyName CountyFIPS LocationName DataSource
 * <dbl> <chr>     <chr>     <chr>           <dbl>        <dbl> <chr>     
 1  2021 MD        Maryland  Montgomery      24031  24031700613 BRFSS     
 2  2021 MD        Maryland  Montgomery      24031  24031700904 BRFSS     
 3  2021 MD        Maryland  Montgomery      24031  24031700718 BRFSS     
 4  2021 MD        Maryland  Montgomery      24031  24031700306 BRFSS     
 5  2021 MD        Maryland  Montgomery      24031  24031701508 BRFSS     
 6  2021 MD        Maryland  Montgomery      24031  24031701408 BRFSS     
 7  2021 MD        Maryland  Montgomery      24031  24031701212 BRFSS     
 8  2021 MD        Maryland  Montgomery      24031  24031700818 BRFSS     
 9  2021 MD        Maryland  Montgomery      24031  24031700817 BRFSS     
10  2021 MD        Maryland  Montgomery      24031  24031700500 BRFSS     
# ℹ 4,320 more rows
# ℹ 18 more variables: Category <chr>, Measure <chr>, Data_Value_Unit <chr>,
#   Data_Value_Type <chr>, Data_Value <dbl>, Data_Value_Footnote_Symbol <lgl>,
#   Data_Value_Footnote <lgl>, Low_Confidence_Limit <dbl>,
#   High_Confidence_Limit <dbl>, TotalPopulation <dbl>, Geolocation <chr>,
#   LocationID <dbl>, CategoryID <chr>, MeasureId <chr>, DataValueTypeID <chr>,
#   Short_Question_Text <chr>, Counties <dbl>, geometry <POINT [°]>
…
